15
163 250
0
600 405
600 87
96 50 109 440
109 440 718 438
718 438 708 38
708 38 96 50
98 115 221 131
221 131 226 217
107 387 234 343
234 343 228 291
226 217 610 196
305 150 711 107
221 137 431 78
228 291 621 280
716 319 318 356
234 343 239 384
239 384 354 401
